^C:\USERS\MERI\DESKTOP\ZS 2016_2017\OOP\KALKULACKA\KALKULACKA\KALKULACKA.H
"C:\Program Files\Qt\bin\moc.exe"  "C:\Users\Meri\Desktop\ZS 2016_2017\oop\kalkulacka\kalkulacka\kalkulacka.h" -o ".\GeneratedFiles\Release\moc_kalkulacka.cpp"  -DUNICODE -DWIN32 -DQT_DLL -DQT_NO_DEBUG -DNDEBUG -DQT_CORE_LIB -DQT_GUI_LIB -DQT_WIDGETS_LIB "-I.\GeneratedFiles" "-I." "-IC:\Program Files\Qt\include" "-I.\GeneratedFiles\Release\." "-IC:\Program Files\Qt\include\QtCore" "-IC:\Program Files\Qt\include\QtGui" "-IC:\Program Files\Qt\include\QtWidgets"
^C:\USERS\MERI\DESKTOP\ZS 2016_2017\OOP\KALKULACKA\KALKULACKA\KALKULACKA.UI
"C:\Program Files\Qt\bin\uic.exe" -o ".\GeneratedFiles\ui_kalkulacka.h" "C:\Users\Meri\Desktop\ZS 2016_2017\oop\kalkulacka\kalkulacka\kalkulacka.ui"
^C:\USERS\MERI\DESKTOP\ZS 2016_2017\OOP\KALKULACKA\KALKULACKA\KALKULACKA.QRC
"C:\Program Files\Qt\bin\rcc.exe" -name "kalkulacka" -no-compress "C:\Users\Meri\Desktop\ZS 2016_2017\oop\kalkulacka\kalkulacka\kalkulacka.qrc" -o .\GeneratedFiles\qrc_kalkulacka.cpp
