^C:\USERS\MERI\DESKTOP\ZS 2016_2017\OOP\KALKULACKA\KALKULACKA\X64\RELEASE\KALKULACKA.OBJ|C:\USERS\MERI\DESKTOP\ZS 2016_2017\OOP\KALKULACKA\KALKULACKA\X64\RELEASE\MAIN.OBJ|C:\USERS\MERI\DESKTOP\ZS 2016_2017\OOP\KALKULACKA\KALKULACKA\X64\RELEASE\MOC_KALKULACKA.OBJ|C:\USERS\MERI\DESKTOP\ZS 2016_2017\OOP\KALKULACKA\KALKULACKA\X64\RELEASE\QRC_KALKULACKA.OBJ
C:\WINDOWS\GLOBALIZATION\SORTING\SORTDEFAULT.NLS
C:\PROGRAM FILES\QT\LIB\QTMAIN.LIB
C:\PROGRAM FILES\QT\LIB\QT5CORE.LIB
C:\PROGRAM FILES\QT\LIB\QT5GUI.LIB
C:\PROGRAM FILES\QT\LIB\QT5WIDGETS.LIB
C:\PROGRAM FILES (X86)\WINDOWS KITS\8.1\LIB\WINV6.3\UM\X64\KERNEL32.LIB
C:\PROGRAM FILES (X86)\WINDOWS KITS\8.1\LIB\WINV6.3\UM\X64\USER32.LIB
C:\PROGRAM FILES (X86)\WINDOWS KITS\8.1\LIB\WINV6.3\UM\X64\GDI32.LIB
C:\PROGRAM FILES (X86)\WINDOWS KITS\8.1\LIB\WINV6.3\UM\X64\WINSPOOL.LIB
C:\PROGRAM FILES (X86)\WINDOWS KITS\8.1\LIB\WINV6.3\UM\X64\COMDLG32.LIB
C:\PROGRAM FILES (X86)\WINDOWS KITS\8.1\LIB\WINV6.3\UM\X64\ADVAPI32.LIB
C:\PROGRAM FILES (X86)\WINDOWS KITS\8.1\LIB\WINV6.3\UM\X64\SHELL32.LIB
C:\PROGRAM FILES (X86)\WINDOWS KITS\8.1\LIB\WINV6.3\UM\X64\OLE32.LIB
C:\PROGRAM FILES (X86)\WINDOWS KITS\8.1\LIB\WINV6.3\UM\X64\OLEAUT32.LIB
C:\PROGRAM FILES (X86)\WINDOWS KITS\8.1\LIB\WINV6.3\UM\X64\UUID.LIB
C:\PROGRAM FILES (X86)\WINDOWS KITS\8.1\LIB\WINV6.3\UM\X64\ODBC32.LIB
C:\PROGRAM FILES (X86)\WINDOWS KITS\8.1\LIB\WINV6.3\UM\X64\ODBCCP32.LIB
C:\USERS\MERI\DESKTOP\ZS 2016_2017\OOP\KALKULACKA\KALKULACKA\X64\RELEASE\QRC_KALKULACKA.OBJ
C:\USERS\MERI\DESKTOP\ZS 2016_2017\OOP\KALKULACKA\KALKULACKA\X64\RELEASE\MOC_KALKULACKA.OBJ
C:\USERS\MERI\DESKTOP\ZS 2016_2017\OOP\KALKULACKA\KALKULACKA\X64\RELEASE\KALKULACKA.OBJ
C:\USERS\MERI\DESKTOP\ZS 2016_2017\OOP\KALKULACKA\KALKULACKA\X64\RELEASE\MAIN.OBJ
C:\PROGRAM FILES (X86)\MICROSOFT VISUAL STUDIO 14.0\VC\LIB\AMD64\MSVCRT.LIB
C:\PROGRAM FILES (X86)\MICROSOFT VISUAL STUDIO 14.0\VC\LIB\AMD64\OLDNAMES.LIB
C:\PROGRAM FILES (X86)\MICROSOFT VISUAL STUDIO 14.0\VC\LIB\AMD64\MSVCPRT.LIB
C:\PROGRAM FILES (X86)\MICROSOFT VISUAL STUDIO 14.0\VC\LIB\AMD64\VCRUNTIME.LIB
C:\PROGRAM FILES (X86)\WINDOWS KITS\10\LIB\10.0.10240.0\UCRT\X64\UCRT.LIB
C:\PROGRAM FILES (X86)\WINDOWS KITS\8.1\BIN\X86\RC.EXE
C:\PROGRAM FILES (X86)\MICROSOFT VISUAL STUDIO 14.0\VC\BIN\CVTRES.EXE
C:\WINDOWS\SYSTEM32\TZRES.DLL
C:\WINDOWS\SYSTEM32\RSAENH.DLL
