^C:\USERS\MERI\DESKTOP\ZS 2016_2017\OOP\KALKULACKA\KALKULACKA\GENERATEDFILES\DEBUG\MOC_KALKULACKA.CPP
/c /I.\GENERATEDFILES /I. /I"C:\PROGRAM FILES\QT\INCLUDE" /I.\GENERATEDFILES\DEBUG /I"C:\PROGRAM FILES\QT\INCLUDE\QTCORE" /I"C:\PROGRAM FILES\QT\INCLUDE\QTGUI" /I"C:\PROGRAM FILES\QT\INCLUDE\QTWIDGETS" /Zi /nologo /W1 /WX- /Od /D UNICODE /D WIN32 /D QT_DLL /D QT_CORE_LIB /D QT_GUI_LIB /D QT_WIDGETS_LIB /Gm- /EHsc /MDd /GS /fp:precise /Zc:wchar_t /Zc:forScope /Zc:inline /Fo"X64\DEBUG\\" /Fd"X64\DEBUG\VC140.PDB" /Gd /TP C:\USERS\MERI\DESKTOP\ZS 2016_2017\OOP\KALKULACKA\KALKULACKA\GENERATEDFILES\DEBUG\MOC_KALKULACKA.CPP
^C:\USERS\MERI\DESKTOP\ZS 2016_2017\OOP\KALKULACKA\KALKULACKA\KALKULACKA.CPP
/c /I.\GENERATEDFILES /I. /I"C:\PROGRAM FILES\QT\INCLUDE" /I.\GENERATEDFILES\DEBUG /I"C:\PROGRAM FILES\QT\INCLUDE\QTCORE" /I"C:\PROGRAM FILES\QT\INCLUDE\QTGUI" /I"C:\PROGRAM FILES\QT\INCLUDE\QTWIDGETS" /Zi /nologo /W1 /WX- /Od /D UNICODE /D WIN32 /D QT_DLL /D QT_CORE_LIB /D QT_GUI_LIB /D QT_WIDGETS_LIB /Gm- /EHsc /MDd /GS /fp:precise /Zc:wchar_t /Zc:forScope /Zc:inline /Fo"X64\DEBUG\\" /Fd"X64\DEBUG\VC140.PDB" /Gd /TP C:\USERS\MERI\DESKTOP\ZS 2016_2017\OOP\KALKULACKA\KALKULACKA\KALKULACKA.CPP
^C:\USERS\MERI\DESKTOP\ZS 2016_2017\OOP\KALKULACKA\KALKULACKA\MAIN.CPP
/c /I.\GENERATEDFILES /I. /I"C:\PROGRAM FILES\QT\INCLUDE" /I.\GENERATEDFILES\DEBUG /I"C:\PROGRAM FILES\QT\INCLUDE\QTCORE" /I"C:\PROGRAM FILES\QT\INCLUDE\QTGUI" /I"C:\PROGRAM FILES\QT\INCLUDE\QTWIDGETS" /Zi /nologo /W1 /WX- /Od /D UNICODE /D WIN32 /D QT_DLL /D QT_CORE_LIB /D QT_GUI_LIB /D QT_WIDGETS_LIB /Gm- /EHsc /MDd /GS /fp:precise /Zc:wchar_t /Zc:forScope /Zc:inline /Fo"X64\DEBUG\\" /Fd"X64\DEBUG\VC140.PDB" /Gd /TP C:\USERS\MERI\DESKTOP\ZS 2016_2017\OOP\KALKULACKA\KALKULACKA\MAIN.CPP
^C:\USERS\MERI\DESKTOP\ZS 2016_2017\OOP\KALKULACKA\KALKULACKA\GENERATEDFILES\QRC_KALKULACKA.CPP
/c /I.\GENERATEDFILES /I. /I"C:\PROGRAM FILES\QT\INCLUDE" /I.\GENERATEDFILES\DEBUG /I"C:\PROGRAM FILES\QT\INCLUDE\QTCORE" /I"C:\PROGRAM FILES\QT\INCLUDE\QTGUI" /I"C:\PROGRAM FILES\QT\INCLUDE\QTWIDGETS" /Zi /nologo /W1 /WX- /Od /D UNICODE /D WIN32 /D QT_DLL /D QT_CORE_LIB /D QT_GUI_LIB /D QT_WIDGETS_LIB /Gm- /EHsc /MDd /GS /fp:precise /Zc:wchar_t /Zc:forScope /Zc:inline /Fo"X64\DEBUG\\" /Fd"X64\DEBUG\VC140.PDB" /Gd /TP C:\USERS\MERI\DESKTOP\ZS 2016_2017\OOP\KALKULACKA\KALKULACKA\GENERATEDFILES\QRC_KALKULACKA.CPP
