^C:\USERS\MERI\DESKTOP\ZS 2016_2017\OOP\KALKULACKA\KALKULACKA\KALKULACKA.H
C:\PROGRAM FILES\QT\BIN\MOC.EXE
^C:\USERS\MERI\DESKTOP\ZS 2016_2017\OOP\KALKULACKA\KALKULACKA\KALKULACKA.UI
C:\PROGRAM FILES\QT\BIN\UIC.EXE
^C:\USERS\MERI\DESKTOP\ZS 2016_2017\OOP\KALKULACKA\KALKULACKA\KALKULACKA.QRC
